…
There is three types of simple hypotheses:

* Present edge hypothesis: hypothesis that the edge from V1 to V2 is present in the causal graph. 
    * Format: `from=c("V1"),to=c("V2"),hyp=c("1")`
* Missing edge hypothesis: hypothesis that the edge from V3 to V5 is not present in the causal graph. 
    * Format: `from=c("V3"),to=c("V5"),hyp=c("-1")`
* Root node hypothesis: Hypothesis that a node V1 is a root node in the causal graph. 
    * Format: `from=c("V1"),to=c("V1"),hyp=c("r")`
    

Suppose, for example, that we have observational data of a 6 dimensional system
```R
> data
# A tibble: 500 x 6
       V1     V2    V3     V4    V5     V6
    <dbl>  <dbl> <dbl>  <dbl> <dbl>  <dbl>
 1 -1.06  -0.729 0.381 -0.682 0.452  0.470
 2 -0.880 -0.646 0.617 -0.560 0.404 -0.392
 3  0.567 -1.96  0.481 -0.513 0.653  0.578
 4  2.25  -0.917 0.394 -0.524 0.951  0.339
 5 -0.561 -1.84  0.306 -0.775 0.336  0.575
 6  0.170 -1.72  0.474 -0.680 0.803  0.163
 7  1.38  -0.873 0.628 -0.707 0.638 -0.324
 8 -0.115 -1.61  0.606 -0.403 0.722  0.440
 9  1.40  -0.764 0.331 -0.923 0.354  1.08 
10  1.55  -1.20  0.533 -0.824 0.500  0.252
# ... with 490 more rows
```
…
